{
    "project_name": "My Cpp Project",
    "project_slug": "{{ cookiecutter.project_name.lower().replace(' ', '-') }}",
    "project_short_description": "A C++ project with CMake and Conan",
    "project_version": "0.1.0",
    "target_name": "{{ cookiecutter.project_slug }}",
    "target_type": ["Executable", "Library"],
    "cpp_std": ["17", "14", "11", "20"],
    "vscode": "y",
    "conan_package": "n",
    "catch_version": "3.2.1",
    "test_target_name": "{{ cookiecutter.target_name }}-tests"
}
